nmr/nmr_data/purcell/glycerin/n-40-tau-1ms.csv

Record Length,2500,Points,-8.000000380E-3,400.00000596E-3,
Sample Interval,39.99999899E-6,s,-7.960000075E-3,800.000011921E-3,
Trigger Point,200.00001455,Samples,-7.920000702E-3,400.00000596E-3,
,,,-7.880000398E-3,400.00000596E-3,
,,,-7.840000093E-3,400.00000596E-3,
,,,-7.800000254E-3,800.000011921E-3,
Source,CH2,,-7.760000415E-3,0.0,
Vertical Units,Volts,,-7.720000576E-3,400.00000596E-3,
Vertical Scale,10.0000001,,-7.680000272E-3,400.00000596E-3,
Vertical Offset,0,,-7.640000433E-3,400.00000596E-3,
Horizontal Units,s,,-7.600000594E-3,400.00000596E-3,
Horizontal Scale,9.999999747E-3,,-7.560000289E-3,400.00000596E-3,
Pt Fmt,Y,,-7.520000450E-3,400.00000596E-3,
Yzero,-2.0400000,,-7.480000611E-3,400.00000596E-3,
Probe Atten,10.0000000,,-7.440000307E-3,400.00000596E-3,
,,,-7.400000468E-3,800.000011921E-3,
Note,TDS 2022B - 4:19:23 PM   4/15/2025,,-7.36000016E-3,0.0,
,,,-7.32000032E-3,800.000011921E-3,
,,,-7.28000049E-3,400.00000596E-3,
,,,-7.24000018E-3,400.00000596E-3,
,,,-7.20000034E-3,0.0,
,,,-7.16000050E-3,400.00000596E-3,
,,,-7.12000020E-3,400.00000596E-3,
,,,-7.08000036E-3,800.000011921E-3,
,,,-7.04000052E-3,400.00000596E-3,
,,,-7.00000022E-3,800.000011921E-3,
,,,-6.96000038E-3,400.00000596E-3,
,,,-6.92000054E-3,400.00000596E-3,
,,,-6.88000023E-3,400.00000596E-3,
,,,-6.84000039E-3,800.000011921E-3,
,,,-6.80000056E-3,0.0,
,,,-6.76000025E-3,800.000011921E-3,
,,,-6.72000041E-3,400.00000596E-3,
,,,-6.68000057E-3,800.000011921E-3,
,,,-6.64000027E-3,400.00000596E-3,
,,,-6.60000043E-3,800.000011921E-3,
,,,-6.56000059E-3,400.00000596E-3,
,,,-6.52000029E-3,400.00000596E-3,
,,,-6.48000045E-3,0.0,
,,,-6.44000061E-3,800.000011921E-3,
,,,-6.40000030E-3,400.00000596E-3,
,,,-6.36000047E-3,800.000011921E-3,
,,,-6.32000063E-3,400.00000596E-3,
,,,-6.28000032E-3,800.000011921E-3,
,,,-6.24000048E-3,400.00000596E-3,
,,,-6.20000064E-3,800.000011921E-3,
,,,-6.16000034E-3,400.00000596E-3,
,,,-6.12000050E-3,400.00000596E-3,
,,,-6.08000066E-3,400.00000596E-3,
,,,-6.04000036E-3,400.00000596E-3,
,,,-6.00000052E-3,400.00000596E-3,
,,,-5.96000021E-3,800.000011921E-3,
,,,-5.92000037E-3,400.00000596E-3,
,,,-5.88000054E-3,400.00000596E-3,
,,,-5.84000023E-3,0.0,
,,,-5.80000039E-3,800.000011921E-3,
,,,-5.76000055E-3,400.00000596E-3,
,,,-5.72000025E-3,800.000011921E-3,
,,,-5.68000041E-3,400.00000596E-3,
,,,-5.64000057E-3,800.000011921E-3,
,,,-5.60000027E-3,400.00000596E-3,
,,,-5.56000043E-3,400.00000596E-3,
,,,-5.52000059E-3,400.00000596E-3,
,,,-5.48000028E-3,800.000011921E-3,
,,,-5.44000044E-3,0.0,
,,,-5.40000061E-3,800.000011921E-3,
,,,-5.36000030E-3,400.00000596E-3,
,,,-5.32000046E-3,800.000011921E-3,
,,,-5.28000062E-3,400.00000596E-3,
,,,-5.24000032E-3,800.000011921E-3,
,,,-5.20000048E-3,400.00000596E-3,
,,,-5.16000064E-3,800.000011921E-3,
,,,-5.12000034E-3,400.00000596E-3,
,,,-5.08000050E-3,800.000011921E-3,
,,,-5.04000066E-3,400.00000596E-3,
,,,-5.00000035E-3,800.000011921E-3,
,,,-4.96000051E-3,400.00000596E-3,
,,,-4.92000068E-3,800.000011921E-3,
,,,-4.88000037E-3,400.00000596E-3,
,,,-4.84000053E-3,800.000011921E-3,
,,,-4.80000023E-3,400.00000596E-3,
,,,-4.76000039E-3,800.000011921E-3,
,,,-4.72000055E-3,400.00000596E-3,
,,,-4.68000025E-3,800.000011921E-3,
,,,-4.64000041E-3,400.00000596E-3,
,,,-4.60000057E-3,800.000011921E-3,
,,,-4.56000026E-3,400.00000596E-3,
,,,-4.52000042E-3,800.000011921E-3,
,,,-4.48000059E-3,400.00000596E-3,
,,,-4.44000028E-3,800.000011921E-3,
,,,-4.40000044E-3,400.00000596E-3,
,,,-4.36000060E-3,800.000011921E-3,
,,,-4.32000030E-3,400.00000596E-3,
,,,-4.28000046E-3,400.00000596E-3,
,,,-4.24000062E-3,400.00000596E-3,
,,,-4.20000032E-3,800.000011921E-3,
,,,-4.16000048E-3,400.00000596E-3,
,,,-4.12000064E-3,800.000011921E-3,
,,,-4.08000033E-3,400.00000596E-3,
,,,-4.04000049E-3,400.00000596E-3,
,,,-4.00000066E-3,400.00000596E-3,
,,,-3.96000035E-3,400.00000596E-3,
,,,-3.92000051E-3,400.00000596E-3,
,,,-3.88000044E-3,800.000011921E-3,
,,,-3.84000037E-3,400.00000596E-3,
,,,-3.80000053E-3,800.000011921E-3,
,,,-3.76000046E-3,400.00000596E-3,
,,,-3.72000039E-3,400.00000596E-3,
,,,-3.68000055E-3,400.00000596E-3,
,,,-3.64000048E-3,800.000011921E-3,
,,,-3.60000040E-3,400.00000596E-3,
,,,-3.56000056E-3,800.000011921E-3,
,,,-3.52000049E-3,400.00000596E-3,
,,,-3.48000042E-3,800.000011921E-3,
,,,-3.44000058E-3,400.00000596E-3,
,,,-3.40000051E-3,400.00000596E-3,
,,,-3.36000044E-3,0.0,
,,,-3.32000060E-3,400.00000596E-3,
,,,-3.28000053E-3,0.0,
,,,-3.24000046E-3,800.000011921E-3,
,,,-3.20000062E-3,400.00000596E-3,
,,,-3.16000055E-3,800.000011921E-3,
,,,-3.12000047E-3,400.00000596E-3,
,,,-3.08000040E-3,800.000011921E-3,
,,,-3.04000056E-3,400.00000596E-3,
,,,-3.00000049E-3,800.000011921E-3,
,,,-2.96000042E-3,400.00000596E-3,
,,,-2.92000058E-3,800.000011921E-3,
,,,-2.88000051E-3,0.0,
,,,-2.84000044E-3,800.000011921E-3,
,,,-2.80000060E-3,400.00000596E-3,
,,,-2.76000053E-3,400.00000596E-3,
,,,-2.72000046E-3,400.00000596E-3,
,,,-2.6800006E-3,800.000011921E-3,
,,,-2.6400005E-3,400.00000596E-3,
,,,-2.6000005E-3,800.000011921E-3,
,,,-2.5600004E-3,400.00000596E-3,
,,,-2.5200006E-3,800.000011921E-3,
,,,-2.4800005E-3,400.00000596E-3,
,,,-2.4400004E-3,800.000011921E-3,
,,,-2.4000006E-3,400.00000596E-3,
,,,-2.3600005E-3,800.000011921E-3,
,,,-2.3200004E-3,400.00000596E-3,
,,,-2.2800006E-3,800.000011921E-3,
,,,-2.2400005E-3,400.00000596E-3,
,,,-2.2000005E-3,400.00000596E-3,
,,,-2.1600006E-3,0.0,
,,,-2.1200005E-3,400.00000596E-3,
,,,-2.0800005E-3,400.00000596E-3,
,,,-2.0400006E-3,400.00000596E-3,
,,,-2.0000006E-3,400.00000596E-3,
,,,-1.9600005E-3,800.000011921E-3,
,,,-1.9200005E-3,400.00000596E-3,
,,,-1.8800006E-3,800.000011921E-3,
,,,-1.8400005E-3,400.00000596E-3,
,,,-1.8000006E-3,800.000011921E-3,
,,,-1.7600006E-3,0.0,
,,,-1.7200005E-3,400.00000596E-3,
,,,-1.6800006E-3,400.00000596E-3,
,,,-1.6400005E-3,400.00000596E-3,
,,,-1.6000005E-3,400.00000596E-3,
,,,-1.5600006E-3,800.000011921E-3,
,,,-1.5200005E-3,400.00000596E-3,
,,,-1.4800006E-3,400.00000596E-3,
,,,-1.4400005E-3,400.00000596E-3,
,,,-1.4000005E-3,800.000011921E-3,
,,,-1.3600006E-3,400.00000596E-3,
,,,-1.3200005E-3,800.000011921E-3,
,,,-1.2800005E-3,0.0,
,,,-1.2400006E-3,800.000011921E-3,
,,,-1.2000005E-3,400.00000596E-3,
,,,-1.1600006E-3,800.000011921E-3,
,,,-1.1200006E-3,400.00000596E-3,
,,,-1.0800005E-3,800.000011921E-3,
,,,-1.0400006E-3,400.00000596E-3,
,,,-1.0000005E-3,800.000011921E-3,
,,,-960.000557825E-6,400.00000596E-3,
,,,-920.000544284E-6,800.000011921E-3,
,,,-880.000530742E-6,400.00000596E-3,
,,,-840.000575408E-6,800.000011921E-3,
,,,-800.000561867E-6,400.00000596E-3,
,,,-760.000548325E-6,800.000011921E-3,
,,,-720.000592992E-6,0.0,
,,,-680.000579450E-6,800.000011921E-3,
,,,-640.000565909E-6,400.00000596E-3,
,,,-600.000552367E-6,800.000011921E-3,
,,,-560.000538826E-6,400.00000596E-3,
,,,-520.000583492E-6,400.00000596E-3,
,,,-480.000569951E-6,400.00000596E-3,
,,,-440.000556409E-6,400.00000596E-3,
,,,-400.00057197E-6,400.00000596E-3,
,,,-360.00058753E-6,800.000011921E-3,
,,,-320.00057399E-6,400.00000596E-3,
,,,-280.00056045E-6,800.000011921E-3,
,,,-240.00057601E-6,400.00000596E-3,
,,,-200.00057702E-6,400.00000596E-3,
,,,-160.00057803E-6,400.00000596E-3,
,,,-120.0005790E-6,800.000011921E-3,
,,,-80.000580056E-6,400.00000596E-3,
,,,-40.00058107E-6,800.000011921E-3,
,,,-582.076606750E-12,400.00000596E-3,
,,,39.99941691E-6,800.000011921E-3,
,,,79.999415902E-6,0.0,
,,,119.9994149E-6,17.2000008,
,,,159.99941388E-6,18.0000000,
,,,199.99941287E-6,26.39999962,
,,,239.99941186E-6,26.80000114,
,,,279.99939630E-6,28.00000000,
,,,319.99940984E-6,24.00000000,
,,,359.99942338E-6,27.20000076,
,,,399.99940782E-6,19.2000008,
,,,439.999392256E-6,24.00000000,
,,,479.999405798E-6,14.4000006,
,,,519.999419339E-6,19.2000008,
,,,559.999374673E-6,10.8000002,
,,,599.999388214E-6,14.4000006,
,,,639.999401756E-6,8.000000000,
,,,679.999415297E-6,10.4000006,
,,,719.999428838E-6,6.40000010,
,,,759.999384172E-6,8.000000000,
,,,799.999397714E-6,5.20000029,
,,,839.999411255E-6,6.40000010,
,,,879.999366589E-6,4.40000010,
,,,919.999380130E-6,5.20000029,
,,,959.999393672E-6,4.00000000,
,,,999.999349006E-6,4.80000019,
,,,1.0399994E-3,2.79999995,
,,,1.0799994E-3,4.40000010,
,,,1.1199994E-3,2.79999995,
,,,1.1599994E-3,3.60000014,
,,,1.1999994E-3,2.79999995,
,,,1.2399994E-3,3.60000014,
,,,1.2799994E-3,3.60000014,
,,,1.3199993E-3,4.00000000,
,,,1.3599994E-3,3.60000014,
,,,1.3999994E-3,4.40000010,
,,,1.4399993E-3,3.60000014,
,,,1.4799994E-3,5.20000029,
,,,1.5199994E-3,4.80000019,
,,,1.5599994E-3,6.40000010,
,,,1.5999994E-3,6.00000000,
,,,1.6399993E-3,8.400000572,
,,,1.6799994E-3,8.400000572,
,,,1.7199994E-3,11.6000004,
,,,1.7599994E-3,12.0000000,
,,,1.7999994E-3,16.3999996,
,,,1.8399993E-3,16.3999996,
,,,1.8799994E-3,22.00000000,
,,,1.9199994E-3,22.39999962,
,,,1.9599993E-3,27.20000076,
,,,1.9999994E-3,27.60000038,
,,,2.0399995E-3,31.60000038,
,,,2.0799993E-3,31.60000038,
,,,2.1199994E-3,33.60000229,
,,,2.1599995E-3,32.40000153,
,,,2.1999993E-3,34.00000000,
,,,2.2399994E-3,29.20000076,
,,,2.2799994E-3,32.79999924,
,,,2.3199993E-3,24.39999962,
,,,2.3599993E-3,29.20000076,
,,,2.3999994E-3,18.8000011,
,,,2.4399993E-3,24.00000000,
,,,2.4799993E-3,14.0000000,
,,,2.5199994E-3,18.8000011,
,,,2.5599995E-3,10.0000000,
,,,2.5999993E-3,14.4000006,
,,,2.6399994E-3,7.599999905,
,,,2.6799995E-3,10.4000006,
,,,2.71999929E-3,6.00000000,
,,,2.75999936E-3,7.599999905,
,,,2.79999943E-3,4.40000010,
,,,2.83999927E-3,6.40000010,
,,,2.87999935E-3,4.00000000,
,,,2.91999942E-3,5.20000029,
,,,2.95999926E-3,3.60000014,
,,,2.99999933E-3,4.40000010,
,,,3.03999940E-3,2.79999995,
,,,3.07999924E-3,4.00000000,
,,,3.11999931E-3,2.79999995,
,,,3.15999938E-3,3.60000014,
,,,3.19999922E-3,3.60000014,
,,,3.23999929E-3,4.00000000,
,,,3.27999936E-3,3.20000005,
,,,3.31999944E-3,4.40000010,
,,,3.35999927E-3,3.60000014,
,,,3.39999935E-3,4.40000010,
,,,3.43999942E-3,4.00000000,
,,,3.47999926E-3,4.80000019,
,,,3.51999933E-3,4.80000019,
,,,3.55999940E-3,6.00000000,
,,,3.59999924E-3,6.00000000,
,,,3.63999931E-3,8.400000572,
,,,3.67999938E-3,8.400000572,
,,,3.71999922E-3,11.6000004,
,,,3.75999929E-3,11.6000004,
,,,3.79999937E-3,15.6000004,
,,,3.83999944E-3,16.0000000,
,,,3.87999928E-3,21.20000076,
,,,3.91999912E-3,21.20000076,
,,,3.95999942E-3,26.39999962,
,,,3.99999926E-3,26.00000000,
,,,4.03999910E-3,29.60000038,
,,,4.07999940E-3,30.00000000,
,,,4.11999924E-3,31.60000038,
,,,4.15999908E-3,30.39999962,
,,,4.19999938E-3,32.00000000,
,,,4.23999922E-3,27.20000076,
,,,4.27999953E-3,30.39999962,
,,,4.31999937E-3,22.39999962,
,,,4.35999921E-3,27.20000076,
,,,4.39999951E-3,17.2000008,
,,,4.43999935E-3,22.39999962,
,,,4.47999919E-3,12.8000002,
,,,4.51999949E-3,17.2000008,
,,,4.55999933E-3,8.800000191,
,,,4.59999917E-3,12.8000002,
,,,4.63999948E-3,7.20000029,
,,,4.67999931E-3,9.199999809,
,,,4.71999915E-3,5.20000029,
,,,4.75999946E-3,7.20000029,
,,,4.79999930E-3,4.40000010,
,,,4.83999914E-3,5.59999990,
,,,4.87999944E-3,3.60000014,
,,,4.91999928E-3,4.40000010,
,,,4.95999912E-3,3.20000005,
,,,4.99999942E-3,3.60000014,
,,,5.03999926E-3,2.0000000,
,,,5.07999910E-3,3.60000014,
,,,5.11999940E-3,2.0000000,
,,,5.15999924E-3,2.79999995,
,,,5.19999908E-3,2.4000001,
,,,5.23999939E-3,2.79999995,
,,,5.27999923E-3,2.4000001,
,,,5.31999907E-3,3.20000005,
,,,5.35999937E-3,3.20000005,
,,,5.39999921E-3,3.60000014,
,,,5.43999951E-3,3.20000005,
,,,5.47999935E-3,4.40000010,
,,,5.51999919E-3,3.60000014,
,,,5.55999950E-3,5.20000029,
,,,5.59999933E-3,5.20000029,
,,,5.63999917E-3,7.20000029,
,,,5.67999948E-3,7.20000029,
,,,5.71999932E-3,10.4000006,
,,,5.75999916E-3,10.0000000,
,,,5.79999946E-3,14.0000000,
,,,5.83999930E-3,14.4000006,
,,,5.87999914E-3,19.2000008,
,,,5.91999944E-3,18.8000011,
,,,5.95999928E-3,24.00000000,
,,,5.99999912E-3,24.00000000,
,,,6.03999943E-3,27.60000038,
,,,6.07999926E-3,27.60000038,
,,,6.11999910E-3,29.60000038,
,,,6.15999941E-3,28.39999962,
,,,6.19999925E-3,29.60000038,
,,,6.23999909E-3,25.60000038,
,,,6.27999939E-3,28.39999962,
,,,6.31999923E-3,21.20000076,
,,,6.35999907E-3,25.60000038,
,,,6.39999937E-3,16.8000011,
,,,6.43999921E-3,21.20000076,
,,,6.47999905E-3,12.0000000,
,,,6.51999936E-3,16.3999996,
,,,6.55999919E-3,8.800000191,
,,,6.59999903E-3,12.4000006,
,,,6.63999934E-3,6.80000019,
,,,6.67999918E-3,8.800000191,
,,,6.71999902E-3,5.20000029,
,,,6.75999932E-3,7.20000029,
,,,6.79999916E-3,4.40000010,
,,,6.83999946E-3,5.20000029,
,,,6.87999930E-3,3.60000014,
,,,6.91999914E-3,4.40000010,
,,,6.95999945E-3,3.20000005,
,,,6.99999928E-3,4.00000000,
,,,7.03999912E-3,2.4000001,
,,,7.07999943E-3,3.60000014,
,,,7.11999927E-3,2.4000001,
,,,7.15999911E-3,3.20000005,
,,,7.19999941E-3,2.79999995,
,,,7.23999925E-3,3.60000014,
,,,7.27999909E-3,3.20000005,
,,,7.31999939E-3,3.60000014,
,,,7.35999923E-3,3.20000005,
,,,7.399999071E-3,4.00000000,
,,,7.439999375E-3,3.60000014,
,,,7.479999214E-3,4.40000010,
,,,7.519999053E-3,4.00000000,
,,,7.559999358E-3,5.20000029,
,,,7.599999197E-3,4.80000019,
,,,7.639999036E-3,7.20000029,
,,,7.679999340E-3,7.20000029,
,,,7.719999179E-3,10.0000000,
,,,7.759999018E-3,10.0000000,
,,,7.799999323E-3,14.0000000,
,,,7.839999162E-3,14.0000000,
,,,7.879999466E-3,18.0000000,
,,,7.919998839E-3,18.3999996,
,,,7.959999144E-3,22.80000114,
,,,7.999999449E-3,22.80000114,
,,,8.039998822E-3,26.00000000,
,,,8.079999126E-3,26.00000000,
,,,8.119999431E-3,27.60000038,
,,,8.159998804E-3,26.39999962,
,,,8.199999109E-3,28.00000000,
,,,8.239999413E-3,23.60000038,
,,,8.279998787E-3,26.39999962,
,,,8.319999091E-3,19.6000004,
,,,8.359999396E-3,23.60000038,
,,,8.399998769E-3,14.8000002,
,,,8.439999074E-3,19.2000008,
,,,8.479999378E-3,11.1999998,
,,,8.519998752E-3,14.8000002,
,,,8.559999056E-3,8.000000000,
,,,8.599999361E-3,11.1999998,
,,,8.639998734E-3,5.59999990,
,,,8.679999039E-3,8.000000000,
,,,8.719999343E-3,4.40000010,
,,,8.759999648E-3,6.00000000,
,,,8.799999021E-3,3.60000014,
,,,8.839999326E-3,4.80000019,
,,,8.879999630E-3,3.20000005,
,,,8.919999003E-3,4.00000000,
,,,8.959999308E-3,2.4000001,
,,,8.999999613E-3,3.20000005,
,,,9.039998986E-3,2.0000000,
,,,9.079999290E-3,2.79999995,
,,,9.119999595E-3,1.6000000,
,,,9.159998968E-3,2.4000001,
,,,9.199999273E-3,2.0000000,
,,,9.239999577E-3,2.4000001,
,,,9.279998951E-3,2.0000000,
,,,9.319999255E-3,2.4000001,
,,,9.359999560E-3,2.4000001,
,,,9.399998933E-3,2.79999995,
,,,9.439999238E-3,2.79999995,
,,,9.479999542E-3,3.60000014,
,,,9.519998915E-3,3.20000005,
,,,9.559999220E-3,4.40000010,
,,,9.599999525E-3,4.00000000,
,,,9.639998898E-3,6.00000000,
,,,9.679999202E-3,6.00000000,
,,,9.719999507E-3,8.800000191,
,,,9.759998880E-3,8.800000191,
,,,9.799999185E-3,12.4000006,
,,,9.839999489E-3,12.4000006,
,,,9.879998863E-3,16.3999996,
,,,9.919999167E-3,16.8000011,
,,,9.959999472E-3,20.80000114,
,,,9.999998845E-3,20.80000114,
,,,10.0399991E-3,24.39999962,
,,,10.0799995E-3,24.00000000,
,,,10.1199988E-3,25.60000038,
,,,10.1599991E-3,24.80000114,
,,,10.1999994E-3,26.00000000,
,,,10.2399988E-3,22.00000000,
,,,10.2799991E-3,24.80000114,
,,,10.3199994E-3,18.3999996,
,,,10.3599988E-3,22.00000000,
,,,10.3999991E-3,14.4000006,
,,,10.4399994E-3,18.3999996,
,,,10.4799988E-3,10.8000002,
,,,10.5199991E-3,14.4000006,
,,,10.5599994E-3,7.599999905,
,,,10.5999988E-3,10.8000002,
,,,10.6399991E-3,5.59999990,
,,,10.6799994E-3,8.000000000,
,,,10.7199987E-3,4.40000010,
,,,10.7599990E-3,6.00000000,
,,,10.7999993E-3,3.60000014,
,,,10.8399987E-3,4.80000019,
,,,10.8799990E-3,3.20000005,
,,,10.9199993E-3,4.00000000,
,,,10.9599987E-3,2.79999995,
,,,10.9999990E-3,3.60000014,
,,,11.0399993E-3,2.0000000,
,,,11.0799987E-3,3.20000005,
,,,11.1199990E-3,2.0000000,
,,,11.1599993E-3,2.79999995,
,,,11.1999996E-3,2.4000001,
,,,11.2399990E-3,3.20000005,
,,,11.2799993E-3,2.79999995,
,,,11.3199996E-3,3.20000005,
,,,11.3599990E-3,2.79999995,
,,,11.3999993E-3,3.60000014,
,,,11.4399996E-3,2.79999995,
,,,11.4799989E-3,4.00000000,
,,,11.5199992E-3,3.60000014,
,,,11.5599995E-3,4.80000019,
,,,11.5999989E-3,4.40000010,
,,,11.6399992E-3,6.40000010,
,,,11.6799995E-3,6.00000000,
,,,11.7199989E-3,8.400000572,
,,,11.7599992E-3,8.800000191,
,,,11.7999995E-3,12.0000000,
,,,11.8399989E-3,12.4000006,
,,,11.8799992E-3,16.0000000,
,,,11.9199995E-3,16.0000000,
,,,11.9599989E-3,20.0000000,
,,,11.9999992E-3,19.6000004,
,,,12.0399995E-3,22.80000114,
,,,12.0799989E-3,22.80000114,
,,,12.1199992E-3,24.00000000,
,,,12.1599995E-3,22.80000114,
,,,12.1999988E-3,24.00000000,
,,,12.2399991E-3,20.80000114,
,,,12.2799994E-3,22.80000114,
,,,12.3199988E-3,16.8000011,
,,,12.3599991E-3,20.39999962,
,,,12.3999994E-3,13.1999998,
,,,12.4399988E-3,16.8000011,
,,,12.4799991E-3,9.600000381,
,,,12.5199994E-3,13.1999998,
,,,12.5599988E-3,6.80000019,
,,,12.5999991E-3,9.600000381,
,,,12.6399994E-3,5.20000029,
,,,12.6799988E-3,6.80000019,
,,,12.7199991E-3,3.60000014,
,,,12.7599994E-3,5.20000029,
,,,12.7999987E-3,2.79999995,
,,,12.8399990E-3,4.00000000,
,,,12.8799994E-3,2.4000001,
,,,12.9199987E-3,3.20000005,
,,,12.9599990E-3,2.0000000,
,,,12.9999993E-3,2.79999995,
,,,13.0399987E-3,1.6000000,
,,,13.0799990E-3,2.4000001,
,,,13.1199993E-3,1.2000000,
,,,13.1599987E-3,1.6000000,
,,,13.1999990E-3,1.2000000,
,,,13.2399993E-3,2.0000000,
,,,13.2799987E-3,1.6000000,
,,,13.3199990E-3,2.4000001,
,,,13.3599993E-3,1.6000000,
,,,13.3999987E-3,2.79999995,
,,,13.4399990E-3,2.0000000,
,,,13.4799993E-3,2.79999995,
,,,13.5199986E-3,2.79999995,
,,,13.5599989E-3,3.60000014,
,,,13.5999992E-3,3.60000014,
,,,13.6399986E-3,5.20000029,
,,,13.6799989E-3,5.20000029,
,,,13.7199992E-3,7.599999905,
,,,13.7599986E-3,7.599999905,
,,,13.7999989E-3,10.8000002,
,,,13.8399992E-3,10.8000002,
,,,13.8799995E-3,14.4000006,
,,,13.9199989E-3,14.4000006,
,,,13.9599992E-3,18.0000000,
,,,13.9999995E-3,18.0000000,
,,,14.0399989E-3,21.20000076,
,,,14.0799992E-3,20.80000114,
,,,14.1199995E-3,22.39999962,
,,,14.1599989E-3,21.60000038,
,,,14.1999992E-3,22.39999962,
,,,14.2399995E-3,19.2000008,
,,,14.2799988E-3,21.60000038,
,,,14.3199991E-3,16.3999996,
,,,14.3599994E-3,19.6000004,
,,,14.3999988E-3,12.4000006,
,,,14.4399991E-3,16.3999996,
,,,14.4799994E-3,9.199999809,
,,,14.5199988E-3,12.8000002,
,,,14.5599991E-3,6.80000019,
,,,14.5999994E-3,9.199999809,
,,,14.6399988E-3,4.80000019,
,,,14.6799991E-3,7.20000029,
,,,14.7199994E-3,4.00000000,
,,,14.7599988E-3,5.20000029,
,,,14.7999991E-3,2.79999995,
,,,14.8399994E-3,4.00000000,
,,,14.8799988E-3,2.79999995,
,,,14.9199991E-3,3.60000014,
,,,14.9599994E-3,2.4000001,
,,,14.9999987E-3,3.20000005,
,,,15.0399990E-3,1.6000000,
,,,15.0799993E-3,2.79999995,
,,,15.1199987E-3,1.6000000,
,,,15.1599990E-3,2.4000001,
,,,15.1999993E-3,2.0000000,
,,,15.2399987E-3,2.79999995,
,,,15.2799990E-3,2.0000000,
,,,15.3199993E-3,2.79999995,
,,,15.3599987E-3,2.4000001,
,,,15.3999990E-3,3.20000005,
,,,15.4399993E-3,2.79999995,
,,,15.4799987E-3,3.20000005,
,,,15.5199990E-3,3.20000005,
,,,15.5599993E-3,4.00000000,
,,,15.5999986E-3,4.00000000,
,,,15.6399999E-3,5.20000029,
,,,15.6799983E-3,5.20000029,
,,,15.7199986E-3,8.000000000,
,,,15.7599989E-3,7.599999905,
,,,15.7999992E-3,10.4000006,
,,,15.8399995E-3,10.4000006,
,,,15.8799998E-3,14.0000000,
,,,15.9199983E-3,14.0000000,
,,,15.9599986E-3,17.2000008,
,,,15.9999989E-3,17.2000008,
,,,16.0399992E-3,20.0000000,
,,,16.0799995E-3,19.2000008,
,,,16.1199998E-3,21.20000076,
,,,16.1599983E-3,20.0000000,
,,,16.1999986E-3,20.80000114,
,,,16.2399989E-3,17.6000004,
,,,16.2799992E-3,20.0000000,
,,,16.3199995E-3,14.8000002,
,,,16.3599998E-3,18.0000000,
,,,16.3999982E-3,11.1999998,
,,,16.4399985E-3,14.8000002,
,,,16.4799988E-3,8.400000572,
,,,16.5199991E-3,11.1999998,
,,,16.5599994E-3,6.00000000,
,,,16.5999997E-3,8.400000572,
,,,16.6399982E-3,4.00000000,
,,,16.6799985E-3,6.00000000,
,,,16.7199988E-3,3.20000005,
,,,16.7599991E-3,4.40000010,
,,,16.7999994E-3,2.4000001,
,,,16.8399997E-3,3.20000005,
,,,16.8799981E-3,2.0000000,
,,,16.9199985E-3,2.79999995,
,,,16.9599988E-3,1.6000000,
,,,16.9999991E-3,2.0000000,
,,,17.0399994E-3,800.000011921E-3,
,,,17.0799997E-3,2.0000000,
,,,17.1199981E-3,1.2000000,
,,,17.1599984E-3,1.6000000,
,,,17.1999987E-3,800.000011921E-3,
,,,17.2399990E-3,1.6000000,
,,,17.2799993E-3,1.2000000,
,,,17.3199996E-3,2.0000000,
